12.274239,5.470E+01,9.320E+01
24.283689,6.330E+01,9.100E+01
36.441604,6.290E+01,9.220E+01
48.620962,6.010E+01,9.150E+01
60.774443,6.680E+01,9.120E+01
72.968043,6.640E+01,9.270E+01
85.085666,6.930E+01,9.160E+01
97.296857,6.410E+01,9.340E+01
109.439367,6.930E+01,9.280E+01
121.621776,6.570E+01,9.140E+01
133.697944,4.420E+01,9.360E+01
146.435857,4.520E+01,8.860E+01
158.650790,4.600E+01,9.080E+01
170.776235,4.580E+01,9.210E+01
183.024273,4.470E+01,9.170E+01
195.217477,4.450E+01,9.080E+01
207.355093,4.500E+01,9.020E+01
219.445993,4.600E+01,9.640E+01
231.636326,6.900E+01,9.330E+01
243.724286,6.890E+01,9.310E+01
255.916296,6.680E+01,9.300E+01
268.132850,6.780E+01,9.500E+01
280.228570,6.370E+01,9.240E+01
292.390129,6.530E+01,9.800E+01
304.480216,4.590E+01,9.200E+01
316.680127,4.670E+01,9.240E+01
328.767119,4.820E+01,9.630E+01
340.944189,4.600E+01,9.070E+01
353.071083,4.520E+01,9.590E+01
365.312820,6.750E+01,9.760E+01
377.400430,6.780E+01,9.090E+01
389.534828,6.940E+01,9.190E+01
401.570702,6.880E+01,9.700E+01
413.797452,6.660E+01,9.180E+01
425.816295,6.720E+01,9.560E+01
437.954870,6.170E+01,9.200E+01
450.001637,6.700E+01,9.400E+01
462.071790,6.780E+01,8.890E+01
474.121373,7.080E+01,9.100E+01
486.193094,6.660E+01,9.420E+01
498.201094,6.870E+01,9.210E+01
510.229838,6.690E+01,9.250E+01
522.311515,6.360E+01,9.370E+01
534.327380,6.500E+01,9.500E+01
546.425452,6.630E+01,8.950E+01
558.537847,6.230E+01,9.330E+01
570.545579,6.730E+01,9.710E+01
582.618401,6.690E+01,9.110E+01
594.702823,6.630E+01,9.390E+01
606.772857,6.540E+01,9.340E+01
618.881779,6.630E+01,9.360E+01
631.056864,6.490E+01,9.500E+01
643.273256,6.790E+01,9.190E+01
655.497697,6.610E+01,9.130E+01
667.745909,6.420E+01,9.170E+01
12.296269,4.260E+01,9.190E+01
24.519977,0.000E+00,0.000E+00
12.541368,0.000E+00,0.000E+00
24.713588,0.000E+00,0.000E+00
36.911561,0.000E+00,0.000E+00
13.014119,0.000E+00,0.000E+00
13.065910,0.000E+00,0.000E+00
12.948346,0.000E+00,0.000E+00
25.577596,0.000E+00,2.000E-01
38.282864,0.000E+00,0.000E+00
50.870364,0.000E+00,0.000E+00
63.463226,0.000E+00,0.000E+00
76.234122,0.000E+00,0.000E+00
88.894713,0.000E+00,0.000E+00
101.457311,4.040E+01,8.940E+01
114.192467,4.680E+01,8.910E+01
126.930561,3.790E+01,9.580E+01
139.637178,3.800E+01,8.570E+01
152.398667,4.390E+01,9.080E+01
165.059669,4.500E+01,9.340E+01
177.764431,4.330E+01,9.070E+01
190.469671,4.270E+01,8.740E+01
203.033351,4.090E+01,9.760E+01
215.707296,3.680E+01,9.340E+01
228.353224,3.650E+01,9.370E+01
241.029555,3.870E+01,8.700E+01
253.700975,3.780E+01,9.420E+01
266.253625,3.830E+01,1.017E+02
13.111920,0.000E+00,0.000E+00
25.821966,0.000E+00,0.000E+00
38.357733,0.000E+00,0.000E+00
50.958513,0.000E+00,3.000E-01
28.951111,0.000E+00,0.000E+00
49.084233,4.250E+01,8.780E+01
20.821003,4.330E+01,9.040E+01
27.716242,3.550E+01,1.007E+02
204.676360,3.620E+01,9.590E+01
45.443826,4.160E+01,9.190E+01
36.051996,4.240E+01,9.280E+01
1224.125739,4.250E+01,9.000E+01
